{
	"info": {
		"_postman_id": "0519823f-9b2c-4933-a50f-8628d1f5a7b5",
		"name": "Put_Referance_TC1",
		"schema": "https://schema.getpostman.com/json/collection/v2.1.0/collection.json",
		"_exporter_id": "28055828"
	},
	"item": [
		{
			"name": "Put_Referance_TC1",
			"event": [
				{
					"listen": "test",
					"script": {
						"exec": [
							"pm.test(\"Status code is 200\", function () {\r",
							"    pm.response.to.have.status(200);\r",
							"});\r",
							"// fetch the response body\r",
							"var responseBody = pm.response.json();\r",
							"var res_job = responseBody.job;\r",
							"var res_name = responseBody.name;\r",
							"var res_updatedAt = responseBody.updatedAt;\r",
							"\r",
							"res_updatedAt = res_updatedAt.substr(0,10);\r",
							"console.log(res_updatedAt);\r",
							"res_date = new Date().toISOString().substr(0,10);\r",
							"console.log(res_date);\r",
							" //validate the response body\r",
							"\r",
							"pm.test(\"validate response body parameters\",function(){\r",
							"    pm.expect(res_name).to.eqls(\"morpheus\");\r",
							"    pm.expect(res_job).to.eqls(\"zion resident\");\r",
							"    pm.expect(res_updatedAt).to.eqls(res_date);\r",
							"});\r",
							"pm.test(\"validate date\", function(){\r",
							"    pm.expect(res_updatedAt).to.eqls(res_updatedAt.substr(0,10));\r",
							"});"
						],
						"type": "text/javascript"
					}
				}
			],
			"request": {
				"method": "PUT",
				"header": [],
				"body": {
					"mode": "raw",
					"raw": "{\r\n    \"name\": \"morpheus\",\r\n    \"job\": \"zion resident\"\r\n}",
					"options": {
						"raw": {
							"language": "json"
						}
					}
				},
				"url": {
					"raw": "https://reqres.in/api/users/2",
					"protocol": "https",
					"host": [
						"reqres",
						"in"
					],
					"path": [
						"api",
						"users",
						"2"
					]
				}
			},
			"response": []
		}
	]
}